…
Vectorisation is faster. Friends don’t let friends use rowwise.

``` r
dat <- tibble(A = rnorm(1E5),B = rnorm(1E5))
start_time = Sys.time()
dat %>% 
  rowwise() %>% 
  mutate(C = sum(A,B)) %>% 
  print(n = 3)
#> # A tibble: 100,000 × 3
#> # Rowwise: 
#>        A      B      C
#>    <dbl>  <dbl>  <dbl>
#> 1  0.288 -2.41  -2.12 
#> 2 -0.532  1.82   1.29 
#> 3 -0.185 -0.124 -0.309
#> # … with 99,997 more rows

Sys.time() - start_time
#> Time difference of 0.6779749 secs

start_time = Sys.time()
dat %>% 
  mutate(D = A + B) %>% 
  print(n = 3)
#> # A tibble: 100,000 × 3
#>        A      B      D
#>    <dbl>  <dbl>  <dbl>
#> 1  0.288 -2.41  -2.12 
#> 2 -0.532  1.82   1.29 
#> 3 -0.185 -0.124 -0.309
#> # … with 99,997 more rows
…
