…
## filter

``` r
flights <- nycflights13::flights

# Numerical filtering
flights %>%
  filter(month >= 6, day == 1)
#> # A tibble: 6,376 × 19
#>     year month   day dep_time sched_dep_time dep_delay arr_time sched_arr_time
#>    <int> <int> <int>    <int>          <int>     <dbl>    <int>          <int>
#>  1  2013    10     1      447            500       -13      614            648
#>  2  2013    10     1      522            517         5      735            757
#>  3  2013    10     1      536            545        -9      809            855
#>  4  2013    10     1      539            545        -6      801            827
#>  5  2013    10     1      539            545        -6      917            933
#>  6  2013    10     1      544            550        -6      912            932
#>  7  2013    10     1      549            600       -11      653            716
#>  8  2013    10     1      550            600       -10      648            700
#>  9  2013    10     1      550            600       -10      649            659
#> 10  2013    10     1      551            600        -9      727            730
#> # … with 6,366 more rows, and 11 more variables: arr_delay <dbl>,
#> #   carrier <chr>, flight <int>, tailnum <chr>, origin <chr>, dest <chr>,
#> #   air_time <dbl>, distance <dbl>, hour <dbl>, minute <dbl>, time_hour <dttm>

# is eqivalent to
flights %>%
  filter(month >= 6 & day == 1)
#> # A tibble: 6,376 × 19
#>     year month   day dep_time sched_dep_time dep_delay arr_time sched_arr_time
#>    <int> <int> <int>    <int>          <int>     <dbl>    <int>          <int>
#>  1  2013    10     1      447            500       -13      614            648
#>  2  2013    10     1      522            517         5      735            757
#>  3  2013    10     1      536            545        -9      809            855
#>  4  2013    10     1      539            545        -6      801            827
#>  5  2013    10     1      539            545        -6      917            933
#>  6  2013    10     1      544            550        -6      912            932
#>  7  2013    10     1      549            600       -11      653            716
#>  8  2013    10     1      550            600       -10      648            700
#>  9  2013    10     1      550            600       -10      649            659
#> 10  2013    10     1      551            600        -9      727            730
#> # … with 6,366 more rows, and 11 more variables: arr_delay <dbl>,
#> #   carrier <chr>, flight <int>, tailnum <chr>, origin <chr>, dest <chr>,
#> #   air_time <dbl>, distance <dbl>, hour <dbl>, minute <dbl>, time_hour <dttm>

# Filter for specific values
flights %>%
  filter(month %in% c(1,3,5,7,9))
#> # A tibble: 141,633 × 19
#>     year month   day dep_time sched_dep_time dep_delay arr_time sched_arr_time
#>    <int> <int> <int>    <int>          <int>     <dbl>    <int>          <int>
#>  1  2013     1     1      517            515         2      830            819
#>  2  2013     1     1      533            529         4      850            830
#>  3  2013     1     1      542            540         2      923            850
#>  4  2013     1     1      544            545        -1     1004           1022
#>  5  2013     1     1      554            600        -6      812            837
#>  6  2013     1     1      554            558        -4      740            728
#>  7  2013     1     1      555            600        -5      913            854
#>  8  2013     1     1      557            600        -3      709            723
#>  9  2013     1     1      557            600        -3      838            846
#> 10  2013     1     1      558            600        -2      753            745
#> # … with 141,623 more rows, and 11 more variables: arr_delay <dbl>,
#> #   carrier <chr>, flight <int>, tailnum <chr>, origin <chr>, dest <chr>,
#> #   air_time <dbl>, distance <dbl>, hour <dbl>, minute <dbl>, time_hour <dttm>
…
# Grouped filters
flights %>% 
  group_by(tailnum) %>% 
  filter(all(dep_delay < 0))
#> # A tibble: 238 × 19
#> # Groups:   tailnum [124]
#>     year month   day dep_time sched_dep_time dep_delay arr_time sched_arr_time
#>    <int> <int> <int>    <int>          <int>     <dbl>    <int>          <int>
#>  1  2013     1     1      622            630        -8     1017           1014
#>  2  2013     1     1     1059           1100        -1     1201           1215
#>  3  2013     1     2      626            630        -4      850            833
#>  4  2013     1     2      629            630        -1     1010           1014
#>  5  2013     1     2     1827           1829        -2     2035           2032
#>  6  2013     1     4      616            630       -14      806            833
#>  7  2013     1     4      622            630        -8     1004           1014
#>  8  2013     1     5      606            610        -4      857            910
#>  9  2013     1     5      627            630        -3      945           1014
#> 10  2013     1     5      734            740        -6     1101           1109
#> # … with 228 more rows, and 11 more variables: arr_delay <dbl>, carrier <chr>,
#> #   flight <int>, tailnum <chr>, origin <chr>, dest <chr>, air_time <dbl>,
#> #   distance <dbl>, hour <dbl>, minute <dbl>, time_hour <dttm>

# String filters
nycflights13::airports %>% 
  filter(name == "Williams County Airport")
#> # A tibble: 1 × 8
#>   faa   name                      lat   lon   alt    tz dst   tzone           
#>   <chr> <chr>                   <dbl> <dbl> <dbl> <dbl> <chr> <chr>           
#> 1 0G6   Williams County Airport  41.5 -84.5   730    -5 A     America/New_York

nycflights13::airports %>% 
  filter(str_detect(name,"County"))
#> # A tibble: 117 × 8
#>    faa   name                                 lat    lon   alt    tz dst   tzone
#>    <chr> <chr>                              <dbl>  <dbl> <dbl> <dbl> <chr> <chr>
#>  1 0G6   Williams County Airport             41.5  -84.5   730    -5 A     Amer…
#>  2 0S9   Jefferson County Intl               48.1 -123.    108    -8 A     Amer…
#>  3 0W3   Harford County Airport              39.6  -76.2   409    -5 A     Amer…
#>  4 17G   Port Bucyrus-Crawford County Airp…  40.8  -83.0  1003    -5 A     Amer…
#>  5 19A   Jackson County Airport              34.2  -83.6   951    -5 U     Amer…
#>  6 24J   Suwannee County Airport             30.3  -83.0   104    -5 A     Amer…
#>  7 2G2   Jefferson County Airpark            40.4  -80.7  1196    -5 A     Amer…
#>  8 2G9   Somerset County Airport             40.0  -79.0  2275    -5 A     Amer…
#>  9 2H0   Shelby County Airport               39.4  -88.8   550    -6 A     Amer…
#> 10 3G4   Ashland County Airport              40.9  -82.3  1206    -5 A     Amer…
#> # … with 107 more rows
```

## mutate

``` r
flights %>% 
  mutate(ave_speed = distance/air_time*60)
#> # A tibble: 336,776 × 20
#>     year month   day dep_time sched_dep_time dep_delay arr_time sched_arr_time
#>    <int> <int> <int>    <int>          <int>     <dbl>    <int>          <int>
#>  1  2013     1     1      517            515         2      830            819
#>  2  2013     1     1      533            529         4      850            830
#>  3  2013     1     1      542            540         2      923            850
#>  4  2013     1     1      544            545        -1     1004           1022
#>  5  2013     1     1      554            600        -6      812            837
#>  6  2013     1     1      554            558        -4      740            728
#>  7  2013     1     1      555            600        -5      913            854
#>  8  2013     1     1      557            600        -3      709            723
#>  9  2013     1     1      557            600        -3      838            846
#> 10  2013     1     1      558            600        -2      753            745
#> # … with 336,766 more rows, and 12 more variables: arr_delay <dbl>,
#> #   carrier <chr>, flight <int>, tailnum <chr>, origin <chr>, dest <chr>,
#> #   air_time <dbl>, distance <dbl>, hour <dbl>, minute <dbl>, time_hour <dttm>,
#> #   ave_speed <dbl>

flights %>% 
  transmute(arr_delay,
            on_time1 = arr_delay < 0,
            on_time2 = if_else(arr_delay > 0,"Late","On-time"),
            # Functions that return a single result will be repeated in each row
            ave_delay_mean = mean(arr_delay,na.rm = T),
            ave_delay = arr_delay > 0)
#> # A tibble: 336,776 × 5
#>    arr_delay on_time1 on_time2 ave_delay_mean ave_delay
#>        <dbl> <lgl>    <chr>             <dbl> <lgl>    
#>  1        11 FALSE    Late               6.90 TRUE     
#>  2        20 FALSE    Late               6.90 TRUE     
#>  3        33 FALSE    Late               6.90 TRUE     
#>  4       -18 TRUE     On-time            6.90 FALSE    
#>  5       -25 TRUE     On-time            6.90 FALSE    
#>  6        12 FALSE    Late               6.90 TRUE     
#>  7        19 FALSE    Late               6.90 TRUE     
#>  8       -14 TRUE     On-time            6.90 FALSE    
#>  9        -8 TRUE     On-time            6.90 FALSE    
#> 10         8 FALSE    Late               6.90 TRUE     
#> # … with 336,766 more rows

flights %>% 
  transmute(across(c(dep_time,arr_time),as.character),
            dep_time = str_pad(dep_time,4,pad = "0",side = "left"),
            dep_hour = str_sub(dep_time,start = 1,end = 2),
            dep_min = str_sub(dep_time,start = 3,end = 4))
#> # A tibble: 336,776 × 4
#>    dep_time arr_time dep_hour dep_min
#>    <chr>    <chr>    <chr>    <chr>  
#>  1 0517     830      05       17     
#>  2 0533     850      05       33     
#>  3 0542     923      05       42     
#>  4 0544     1004     05       44     
#>  5 0554     812      05       54     
#>  6 0554     740      05       54     
#>  7 0555     913      05       55     
#>  8 0557     709      05       57     
#>  9 0557     838      05       57     
#> 10 0558     753      05       58     
#> # … with 336,766 more rows
```
…
flights %>% 
  group_by(tailnum) %>% 
  arrange(month,day,dep_time) %>% 
  slice(1)
#> # A tibble: 4,044 × 19
#> # Groups:   tailnum [4,044]
#>     year month   day dep_time sched_dep_time dep_delay arr_time sched_arr_time
#>    <int> <int> <int>    <int>          <int>     <dbl>    <int>          <int>
#>  1  2013     2    11     1508           1400        68     1807           1636
#>  2  2013     1     1     1604           1510        54     1817           1710
#>  3  2013     1    10      626            630        -4      802            800
#>  4  2013     1    31      623            630        -7      850            831
#>  5  2013     1     6      629            630        -1      820            841
#>  6  2013     1    13     1829           1829         0     2018           2032
#>  7  2013     1     2     1548           1340       128     1710           1500
#>  8  2013     2    10      757            759        -2      931           1011
#>  9  2013     1    12     1847           1850        -3     2039           2055
#> 10  2013     1    16      623            630        -7      849            831
#> # … with 4,034 more rows, and 11 more variables: arr_delay <dbl>,
#> #   carrier <chr>, flight <int>, tailnum <chr>, origin <chr>, dest <chr>,
#> #   air_time <dbl>, distance <dbl>, hour <dbl>, minute <dbl>, time_hour <dttm>

flights %>% 
  group_by(tailnum) %>% 
  arrange(month,day,dep_time) %>% 
  slice(1)
#> # A tibble: 4,044 × 19
#> # Groups:   tailnum [4,044]
#>     year month   day dep_time sched_dep_time dep_delay arr_time sched_arr_time
#>    <int> <int> <int>    <int>          <int>     <dbl>    <int>          <int>
#>  1  2013     2    11     1508           1400        68     1807           1636
#>  2  2013     1     1     1604           1510        54     1817           1710
#>  3  2013     1    10      626            630        -4      802            800
#>  4  2013     1    31      623            630        -7      850            831
#>  5  2013     1     6      629            630        -1      820            841
#>  6  2013     1    13     1829           1829         0     2018           2032
#>  7  2013     1     2     1548           1340       128     1710           1500
#>  8  2013     2    10      757            759        -2      931           1011
#>  9  2013     1    12     1847           1850        -3     2039           2055
#> 10  2013     1    16      623            630        -7      849            831
#> # … with 4,034 more rows, and 11 more variables: arr_delay <dbl>,
#> #   carrier <chr>, flight <int>, tailnum <chr>, origin <chr>, dest <chr>,
#> #   air_time <dbl>, distance <dbl>, hour <dbl>, minute <dbl>, time_hour <dttm>
…
flights %>% 
  group_by(tailnum) %>% 
  slice_max(distance,n = 1,with_ties = F)
#> # A tibble: 4,044 × 19
#> # Groups:   tailnum [4,044]
#>     year month   day dep_time sched_dep_time dep_delay arr_time sched_arr_time
#>    <int> <int> <int>    <int>          <int>     <dbl>    <int>          <int>
#>  1  2013     3    23     1340           1300        40     1638           1554
#>  2  2013    12     4     1513           1520        -7     1744           1750
#>  3  2013     1    16     2114           1935        99       12           2220
#>  4  2013    12     4      836            845        -9     1035           1053
#>  5  2013     1     6      629            630        -1      820            841
#>  6  2013    11    14     1542           1544        -2     1744           1750
#>  7  2013     4     1      815            822        -7     1042           1045
#>  8  2013    10    27     1543           1545        -2     1747           1751
#>  9  2013     1    12     1847           1850        -3     2039           2055
#> 10  2013    10    14     1533           1540        -7     1741           1742
#> # … with 4,034 more rows, and 11 more variables: arr_delay <dbl>,
#> #   carrier <chr>, flight <int>, tailnum <chr>, origin <chr>, dest <chr>,
#> #   air_time <dbl>, distance <dbl>, hour <dbl>, minute <dbl>, time_hour <dttm>
```
…
## arrange

``` r
flights %>% 
  distinct(carrier,month,day) %>% 
  arrange(desc(carrier),-month,-day) %>% 
  select(carrier,month,day) 
#> # A tibble: 5,432 × 3
#>    carrier month   day
#>    <chr>   <int> <int>
#>  1 YV         12    31
#>  2 YV         12    30
#>  3 YV         12    28
#>  4 YV         12    27
#>  5 YV         12    26
#>  6 YV         12    24
#>  7 YV         12    23
#>  8 YV         12    22
#>  9 YV         12    21
#> 10 YV         12    20
#> # … with 5,422 more rows
```
